simulation/qsim/de0_nano.msim.vcd
$comment
	File created using the following command:
		vcd file de0_nano.msim.vcd -direction
$end
$date
	Wed Oct 23 20:03:29 2024
$end
$version
	ModelSim Version 2020.1
$end
$timescale
	1ps
$end

$scope module top_level_vhd_vec_tst $end
$var wire 1 ! ADC_CS_N $end
$var wire 1 " adc_data_out [15] $end
$var wire 1 # adc_data_out [14] $end
$var wire 1 $ adc_data_out [13] $end
$var wire 1 % adc_data_out [12] $end
$var wire 1 & adc_data_out [11] $end
$var wire 1 ' adc_data_out [10] $end
$var wire 1 ( adc_data_out [9] $end
$var wire 1 ) adc_data_out [8] $end
$var wire 1 * adc_data_out [7] $end
$var wire 1 + adc_data_out [6] $end
$var wire 1 , adc_data_out [5] $end
$var wire 1 - adc_data_out [4] $end
$var wire 1 . adc_data_out [3] $end
$var wire 1 / adc_data_out [2] $end
$var wire 1 0 adc_data_out [1] $end
$var wire 1 1 adc_data_out [0] $end
$var wire 1 2 ADC_SADDR $end
$var wire 1 3 ADC_SCLK $end
$var wire 1 4 ADC_SDAT $end
$var wire 1 5 CLOCK_50 $end

$scope module i1 $end
$var wire 1 6 gnd $end
$var wire 1 7 vcc $end
$var wire 1 8 unknown $end
$var wire 1 9 devoe $end
$var wire 1 : devclrn $end
$var wire 1 ; devpor $end
$var wire 1 < ww_devoe $end
$var wire 1 = ww_devclrn $end
$var wire 1 > ww_devpor $end
$var wire 1 ? ww_CLOCK_50 $end
$var wire 1 @ ww_ADC_SDAT $end
$var wire 1 A ww_ADC_SADDR $end
$var wire 1 B ww_ADC_CS_N $end
$var wire 1 C ww_ADC_SCLK $end
$var wire 1 D ww_adc_data_out [15] $end
$var wire 1 E ww_adc_data_out [14] $end
$var wire 1 F ww_adc_data_out [13] $end
$var wire 1 G ww_adc_data_out [12] $end
$var wire 1 H ww_adc_data_out [11] $end
$var wire 1 I ww_adc_data_out [10] $end
$var wire 1 J ww_adc_data_out [9] $end
$var wire 1 K ww_adc_data_out [8] $end
$var wire 1 L ww_adc_data_out [7] $end
$var wire 1 M ww_adc_data_out [6] $end
$var wire 1 N ww_adc_data_out [5] $end
$var wire 1 O ww_adc_data_out [4] $end
$var wire 1 P ww_adc_data_out [3] $end
$var wire 1 Q ww_adc_data_out [2] $end
$var wire 1 R ww_adc_data_out [1] $end
$var wire 1 S ww_adc_data_out [0] $end
$var wire 1 T \ADC_SADDR~output_o\ $end
$var wire 1 U \ADC_CS_N~output_o\ $end
$var wire 1 V \ADC_SCLK~output_o\ $end
$var wire 1 W \adc_data_out[0]~output_o\ $end
$var wire 1 X \adc_data_out[1]~output_o\ $end
$var wire 1 Y \adc_data_out[2]~output_o\ $end
$var wire 1 Z \adc_data_out[3]~output_o\ $end
$var wire 1 [ \adc_data_out[4]~output_o\ $end
$var wire 1 \ \adc_data_out[5]~output_o\ $end
$var wire 1 ] \adc_data_out[6]~output_o\ $end
$var wire 1 ^ \adc_data_out[7]~output_o\ $end
$var wire 1 _ \adc_data_out[8]~output_o\ $end
$var wire 1 ` \adc_data_out[9]~output_o\ $end
$var wire 1 a \adc_data_out[10]~output_o\ $end
$var wire 1 b \adc_data_out[11]~output_o\ $end
$var wire 1 c \adc_data_out[12]~output_o\ $end
$var wire 1 d \adc_data_out[13]~output_o\ $end
$var wire 1 e \adc_data_out[14]~output_o\ $end
$var wire 1 f \adc_data_out[15]~output_o\ $end
$var wire 1 g \CLOCK_50~input_o\ $end
$var wire 1 h \adc|spi_driver|clk_toggles[0]~6_combout\ $end
$var wire 1 i \vclock|vclk_cnt[0]~3_combout\ $end
$var wire 1 j \vclock|vclk_cnt~2_combout\ $end
$var wire 1 k \vclock|Add0~4_combout\ $end
$var wire 1 l \vclock|Add0~3_combout\ $end
$var wire 1 m \vclock|vclk_cnt~1_combout\ $end
$var wire 1 n \vclock|Add0~0_combout\ $end
$var wire 1 o \vclock|Add0~1_combout\ $end
$var wire 1 p \vclock|Add0~2_combout\ $end
$var wire 1 q \vclock|vclk_cnt~0_combout\ $end
$var wire 1 r \vclock|Equal0~0_combout\ $end
$var wire 1 s \vclock|Equal0~1_combout\ $end
$var wire 1 t \vclock|virt_clk~0_combout\ $end
$var wire 1 u \vclock|virt_clk~q\ $end
$var wire 1 v \adc|init_delay[0]~0_combout\ $end
$var wire 1 w \adc|spi_comm_delay~8_combout\ $end
$var wire 1 x \adc_run~0_combout\ $end
$var wire 1 y \adc|Add0~1_combout\ $end
$var wire 1 z \adc|Selector0~1_combout\ $end
$var wire 1 { \adc|state.ready~1_combout\ $end
$var wire 1 | \adc|state.ready~reg0_q\ $end
$var wire 1 } \process_0~0_combout\ $end
$var wire 1 ~ \sleep[0]~20_combout\ $end
$var wire 1 !! \sleep[1]~10_combout\ $end
$var wire 1 "! \sleep[1]~11\ $end
$var wire 1 #! \sleep[2]~12_combout\ $end
$var wire 1 $! \sleep[2]~13\ $end
$var wire 1 %! \sleep[3]~14_combout\ $end
$var wire 1 &! \sleep[3]~15\ $end
$var wire 1 '! \sleep[4]~16_combout\ $end
$var wire 1 (! \sleep[4]~17\ $end
$var wire 1 )! \sleep[5]~18_combout\ $end
$var wire 1 *! \adc_run~1_combout\ $end
$var wire 1 +! \adc_run~2_combout\ $end
$var wire 1 ,! \sleep[5]~19\ $end
$var wire 1 -! \sleep[6]~21_combout\ $end
$var wire 1 .! \sleep[6]~22\ $end
$var wire 1 /! \sleep[7]~23_combout\ $end
$var wire 1 0! \sleep[7]~24\ $end
$var wire 1 1! \sleep[8]~25_combout\ $end
$var wire 1 2! \sleep[8]~26\ $end
$var wire 1 3! \sleep[9]~27_combout\ $end
$var wire 1 4! \adc_run~3_combout\ $end
$var wire 1 5! \sleep[9]~28\ $end
$var wire 1 6! \sleep[10]~29_combout\ $end
$var wire 1 7! \adc_run~4_combout\ $end
$var wire 1 8! \adc_run~q\ $end
$var wire 1 9! \adc|state.execute~0_combout\ $end
$var wire 1 :! \adc|state.execute~reg0_q\ $end
$var wire 1 ;! \adc|Add1~2_combout\ $end
$var wire 1 <! \adc|Equal2~0_combout\ $end
$var wire 1 =! \adc|Add1~1_combout\ $end
$var wire 1 >! \adc|Add1~4_combout\ $end
$var wire 1 ?! \adc|Add1~3_combout\ $end
$var wire 1 @! \adc|Equal2~1_combout\ $end
$var wire 1 A! \adc|spi_comm_delay~7_combout\ $end
$var wire 1 B! \adc|spi_comm_delay~6_combout\ $end
$var wire 1 C! \adc|Add1~0_combout\ $end
$var wire 1 D! \adc|Selector0~0_combout\ $end
$var wire 1 E! \adc|state.ready~0_combout\ $end
$var wire 1 F! \adc|state.initialize~0_combout\ $end
$var wire 1 G! \adc|state.initialize~reg0_q\ $end
$var wire 1 H! \adc|Add0~0_combout\ $end
$var wire 1 I! \adc|reset~0_combout\ $end
$var wire 1 J! \adc|reset~1_combout\ $end
$var wire 1 K! \adc|reset~q\ $end
$var wire 1 L! \adc|enable~0_combout\ $end
$var wire 1 M! \adc|enable~1_combout\ $end
$var wire 1 N! \adc|enable~2_combout\ $end
$var wire 1 O! \adc|enable~q\ $end
$var wire 1 P! \adc|spi_driver|clk_ratio[0]~0_combout\ $end
$var wire 1 Q! \adc|spi_driver|Add5~0_combout\ $end
$var wire 1 R! \adc|spi_driver|Add5~1\ $end
$var wire 1 S! \adc|spi_driver|Add5~2_combout\ $end
$var wire 1 T! \adc|spi_driver|count~33_combout\ $end
$var wire 1 U! \adc|spi_driver|count[30]~2_combout\ $end
$var wire 1 V! \adc|spi_driver|Add5~3\ $end
$var wire 1 W! \adc|spi_driver|Add5~4_combout\ $end
$var wire 1 X! \adc|spi_driver|count~32_combout\ $end
$var wire 1 Y! \adc|spi_driver|Add5~5\ $end
$var wire 1 Z! \adc|spi_driver|Add5~6_combout\ $end
$var wire 1 [! \adc|spi_driver|count~31_combout\ $end
$var wire 1 \! \adc|spi_driver|Add5~7\ $end
$var wire 1 ]! \adc|spi_driver|Add5~8_combout\ $end
$var wire 1 ^! \adc|spi_driver|count~3_combout\ $end
$var wire 1 _! \adc|spi_driver|Add5~9\ $end
$var wire 1 `! \adc|spi_driver|Add5~10_combout\ $end
$var wire 1 a! \adc|spi_driver|count~30_combout\ $end
$var wire 1 b! \adc|spi_driver|Add5~11\ $end
$var wire 1 c! \adc|spi_driver|Add5~12_combout\ $end
$var wire 1 d! \adc|spi_driver|count~29_combout\ $end
$var wire 1 e! \adc|spi_driver|Add5~13\ $end
$var wire 1 f! \adc|spi_driver|Add5~14_combout\ $end
$var wire 1 g! \adc|spi_driver|count~28_combout\ $end
$var wire 1 h! \adc|spi_driver|Add5~15\ $end
$var wire 1 i! \adc|spi_driver|Add5~16_combout\ $end
$var wire 1 j! \adc|spi_driver|count~27_combout\ $end
$var wire 1 k! \adc|spi_driver|Add5~17\ $end
$var wire 1 l! \adc|spi_driver|Add5~18_combout\ $end
$var wire 1 m! \adc|spi_driver|count~26_combout\ $end
$var wire 1 n! \adc|spi_driver|Add5~19\ $end
$var wire 1 o! \adc|spi_driver|Add5~20_combout\ $end
$var wire 1 p! \adc|spi_driver|count~25_combout\ $end
$var wire 1 q! \adc|spi_driver|Add5~21\ $end
$var wire 1 r! \adc|spi_driver|Add5~22_combout\ $end
$var wire 1 s! \adc|spi_driver|count~24_combout\ $end
$var wire 1 t! \adc|spi_driver|Add5~23\ $end
$var wire 1 u! \adc|spi_driver|Add5~24_combout\ $end
$var wire 1 v! \adc|spi_driver|count~23_combout\ $end
$var wire 1 w! \adc|spi_driver|Add5~25\ $end
$var wire 1 x! \adc|spi_driver|Add5~26_combout\ $end
$var wire 1 y! \adc|spi_driver|count~22_combout\ $end
$var wire 1 z! \adc|spi_driver|Add5~27\ $end
$var wire 1 {! \adc|spi_driver|Add5~28_combout\ $end
$var wire 1 |! \adc|spi_driver|count~21_combout\ $end
$var wire 1 }! \adc|spi_driver|Add5~29\ $end
$var wire 1 ~! \adc|spi_driver|Add5~30_combout\ $end
$var wire 1 !" \adc|spi_driver|count~20_combout\ $end
$var wire 1 "" \adc|spi_driver|Add5~31\ $end
$var wire 1 #" \adc|spi_driver|Add5~32_combout\ $end
$var wire 1 $" \adc|spi_driver|count~19_combout\ $end
$var wire 1 %" \adc|spi_driver|Add5~33\ $end
$var wire 1 &" \adc|spi_driver|Add5~34_combout\ $end
$var wire 1 '" \adc|spi_driver|count~18_combout\ $end
$var wire 1 (" \adc|spi_driver|Add5~35\ $end
$var wire 1 )" \adc|spi_driver|Add5~36_combout\ $end
$var wire 1 *" \adc|spi_driver|count~17_combout\ $end
$var wire 1 +" \adc|spi_driver|Equal1~5_combout\ $end
$var wire 1 ," \adc|spi_driver|Equal1~6_combout\ $end
$var wire 1 -" \adc|spi_driver|Equal1~7_combout\ $end
$var wire 1 ." \adc|spi_driver|Equal1~8_combout\ $end
$var wire 1 /" \adc|spi_driver|Equal1~9_combout\ $end
$var wire 1 0" \adc|spi_driver|count[17]~0_combout\ $end
$var wire 1 1" \adc|spi_driver|count~1_combout\ $end
$var wire 1 2" \adc|spi_driver|Add5~37\ $end
$var wire 1 3" \adc|spi_driver|Add5~38_combout\ $end
$var wire 1 4" \adc|spi_driver|count~16_combout\ $end
$var wire 1 5" \adc|spi_driver|Add5~39\ $end
$var wire 1 6" \adc|spi_driver|Add5~40_combout\ $end
$var wire 1 7" \adc|spi_driver|count~15_combout\ $end
$var wire 1 8" \adc|spi_driver|Add5~41\ $end
$var wire 1 9" \adc|spi_driver|Add5~42_combout\ $end
$var wire 1 :" \adc|spi_driver|count~14_combout\ $end
$var wire 1 ;" \adc|spi_driver|Add5~43\ $end
$var wire 1 <" \adc|spi_driver|Add5~44_combout\ $end
$var wire 1 =" \adc|spi_driver|count~13_combout\ $end
$var wire 1 >" \adc|spi_driver|Add5~45\ $end
$var wire 1 ?" \adc|spi_driver|Add5~46_combout\ $end
$var wire 1 @" \adc|spi_driver|count~12_combout\ $end
$var wire 1 A" \adc|spi_driver|Add5~47\ $end
$var wire 1 B" \adc|spi_driver|Add5~48_combout\ $end
$var wire 1 C" \adc|spi_driver|count~11_combout\ $end
$var wire 1 D" \adc|spi_driver|Add5~49\ $end
$var wire 1 E" \adc|spi_driver|Add5~50_combout\ $end
$var wire 1 F" \adc|spi_driver|count~10_combout\ $end
$var wire 1 G" \adc|spi_driver|Add5~51\ $end
$var wire 1 H" \adc|spi_driver|Add5~52_combout\ $end
$var wire 1 I" \adc|spi_driver|count~9_combout\ $end
$var wire 1 J" \adc|spi_driver|Add5~53\ $end
$var wire 1 K" \adc|spi_driver|Add5~54_combout\ $end
$var wire 1 L" \adc|spi_driver|count~8_combout\ $end
$var wire 1 M" \adc|spi_driver|Add5~55\ $end
$var wire 1 N" \adc|spi_driver|Add5~56_combout\ $end
$var wire 1 O" \adc|spi_driver|count~7_combout\ $end
$var wire 1 P" \adc|spi_driver|Add5~57\ $end
$var wire 1 Q" \adc|spi_driver|Add5~58_combout\ $end
$var wire 1 R" \adc|spi_driver|count~6_combout\ $end
$var wire 1 S" \adc|spi_driver|Add5~59\ $end
$var wire 1 T" \adc|spi_driver|Add5~60_combout\ $end
$var wire 1 U" \adc|spi_driver|count~5_combout\ $end
$var wire 1 V" \adc|spi_driver|Add5~61\ $end
$var wire 1 W" \adc|spi_driver|Add5~62_combout\ $end
$var wire 1 X" \adc|spi_driver|count~4_combout\ $end
$var wire 1 Y" \adc|spi_driver|Equal1~0_combout\ $end
$var wire 1 Z" \adc|spi_driver|Equal1~1_combout\ $end
$var wire 1 [" \adc|spi_driver|Equal1~2_combout\ $end
$var wire 1 \" \adc|spi_driver|Equal1~3_combout\ $end
$var wire 1 ]" \adc|spi_driver|Equal1~4_combout\ $end
$var wire 1 ^" \adc|spi_driver|Equal1~10_combout\ $end
$var wire 1 _" \adc|spi_driver|clk_toggles[5]~10_combout\ $end
$var wire 1 `" \adc|spi_driver|clk_toggles[0]~7\ $end
$var wire 1 a" \adc|spi_driver|clk_toggles[1]~8_combout\ $end
$var wire 1 b" \adc|spi_driver|clk_toggles[1]~9\ $end
$var wire 1 c" \adc|spi_driver|clk_toggles[2]~11_combout\ $end
$var wire 1 d" \adc|spi_driver|clk_toggles[2]~12\ $end
$var wire 1 e" \adc|spi_driver|clk_toggles[3]~13_combout\ $end
$var wire 1 f" \adc|spi_driver|clk_toggles[3]~14\ $end
$var wire 1 g" \adc|spi_driver|clk_toggles[4]~15_combout\ $end
$var wire 1 h" \adc|spi_driver|Equal3~0_combout\ $end
$var wire 1 i" \adc|spi_driver|clk_toggles[4]~16\ $end
$var wire 1 j" \adc|spi_driver|clk_toggles[5]~17_combout\ $end
$var wire 1 k" \adc|spi_driver|mosi~1_combout\ $end
$var wire 1 l" \adc|spi_driver|busy~0_combout\ $end
$var wire 1 m" \adc|spi_driver|state~q\ $end
$var wire 1 n" \adc|spi_driver|assert_data~0_combout\ $end
$var wire 1 o" \adc|spi_driver|assert_data~q\ $end
$var wire 1 p" \adc|spi_driver|Equal3~1_combout\ $end
$var wire 1 q" \adc|spi_driver|LessThan3~0_combout\ $end
$var wire 1 r" \adc|spi_driver|mosi~2_combout\ $end
$var wire 1 s" \adc|spi_driver|mosi~3_combout\ $end
$var wire 1 t" \adc|spi_driver|mosi~4_combout\ $end
$var wire 1 u" \adc|spi_driver|mosi~en_q\ $end
$var wire 1 v" \adc|spi_driver|busy~1_combout\ $end
$var wire 1 w" \adc|spi_driver|busy~q\ $end
$var wire 1 x" \adc|spi_driver|ss_n~0_combout\ $end
$var wire 1 y" \adc|spi_driver|ss_n~1_combout\ $end
$var wire 1 z" \adc|spi_driver|sclk~0_combout\ $end
$var wire 1 {" \adc|spi_driver|sclk~1_combout\ $end
$var wire 1 |" \adc|spi_driver|sclk~2_combout\ $end
$var wire 1 }" \adc|spi_driver|sclk~q\ $end
$var wire 1 ~" \ADC_SDAT~input_o\ $end
$var wire 1 !# \adc|spi_driver|rx_buffer[0]~0_combout\ $end
$var wire 1 "# \adc|spi_driver|rx_buffer[0]~1_combout\ $end
$var wire 1 ## \adc|spi_driver|rx_buffer[0]~2_combout\ $end
$var wire 1 $# \adc|spi_driver|rx_data[0]~0_combout\ $end
$var wire 1 %# \adc_data_out[0]~reg0_q\ $end
$var wire 1 &# \adc_data_out[1]~reg0_q\ $end
$var wire 1 '# \adc_data_out[2]~reg0_q\ $end
$var wire 1 (# \adc_data_out[3]~reg0_q\ $end
$var wire 1 )# \adc_data_out[4]~reg0_q\ $end
$var wire 1 *# \adc_data_out[5]~reg0_q\ $end
$var wire 1 +# \adc_data_out[6]~reg0_q\ $end
$var wire 1 ,# \adc_data_out[7]~reg0_q\ $end
$var wire 1 -# \adc_data_out[8]~reg0_q\ $end
$var wire 1 .# \adc_data_out[9]~reg0_q\ $end
$var wire 1 /# \adc_data_out[10]~reg0_q\ $end
$var wire 1 0# \adc_data_out[11]~reg0_q\ $end
$var wire 1 1# \adc_data_out[12]~reg0_q\ $end
$var wire 1 2# \adc_data_out[13]~reg0_q\ $end
$var wire 1 3# \adc_data_out[14]~reg0_q\ $end
$var wire 1 4# \adc_data_out[15]~reg0_q\ $end
$var wire 1 5# \adc|spi_comm_delay\ [5] $end
$var wire 1 6# \adc|spi_comm_delay\ [4] $end
$var wire 1 7# \adc|spi_comm_delay\ [3] $end
$var wire 1 8# \adc|spi_comm_delay\ [2] $end
$var wire 1 9# \adc|spi_comm_delay\ [1] $end
$var wire 1 :# \adc|spi_comm_delay\ [0] $end
$var wire 1 ;# \adc|spi_driver|clk_toggles\ [5] $end
$var wire 1 <# \adc|spi_driver|clk_toggles\ [4] $end
$var wire 1 =# \adc|spi_driver|clk_toggles\ [3] $end
$var wire 1 ># \adc|spi_driver|clk_toggles\ [2] $end
$var wire 1 ?# \adc|spi_driver|clk_toggles\ [1] $end
$var wire 1 @# \adc|spi_driver|clk_toggles\ [0] $end
$var wire 1 A# \adc|spi_driver|count\ [31] $end
$var wire 1 B# \adc|spi_driver|count\ [30] $end
$var wire 1 C# \adc|spi_driver|count\ [29] $end
$var wire 1 D# \adc|spi_driver|count\ [28] $end
$var wire 1 E# \adc|spi_driver|count\ [27] $end
$var wire 1 F# \adc|spi_driver|count\ [26] $end
$var wire 1 G# \adc|spi_driver|count\ [25] $end
$var wire 1 H# \adc|spi_driver|count\ [24] $end
$var wire 1 I# \adc|spi_driver|count\ [23] $end
$var wire 1 J# \adc|spi_driver|count\ [22] $end
$var wire 1 K# \adc|spi_driver|count\ [21] $end
$var wire 1 L# \adc|spi_driver|count\ [20] $end
$var wire 1 M# \adc|spi_driver|count\ [19] $end
$var wire 1 N# \adc|spi_driver|count\ [18] $end
$var wire 1 O# \adc|spi_driver|count\ [17] $end
$var wire 1 P# \adc|spi_driver|count\ [16] $end
$var wire 1 Q# \adc|spi_driver|count\ [15] $end
$var wire 1 R# \adc|spi_driver|count\ [14] $end
$var wire 1 S# \adc|spi_driver|count\ [13] $end
$var wire 1 T# \adc|spi_driver|count\ [12] $end
$var wire 1 U# \adc|spi_driver|count\ [11] $end
$var wire 1 V# \adc|spi_driver|count\ [10] $end
$var wire 1 W# \adc|spi_driver|count\ [9] $end
$var wire 1 X# \adc|spi_driver|count\ [8] $end
$var wire 1 Y# \adc|spi_driver|count\ [7] $end
$var wire 1 Z# \adc|spi_driver|count\ [6] $end
$var wire 1 [# \adc|spi_driver|count\ [5] $end
$var wire 1 \# \adc|spi_driver|count\ [4] $end
$var wire 1 ]# \adc|spi_driver|count\ [3] $end
$var wire 1 ^# \adc|spi_driver|count\ [2] $end
$var wire 1 _# \adc|spi_driver|count\ [1] $end
$var wire 1 `# \adc|spi_driver|count\ [0] $end
$var wire 1 a# sleep [10] $end
$var wire 1 b# sleep [9] $end
$var wire 1 c# sleep [8] $end
$var wire 1 d# sleep [7] $end
$var wire 1 e# sleep [6] $end
$var wire 1 f# sleep [5] $end
$var wire 1 g# sleep [4] $end
$var wire 1 h# sleep [3] $end
$var wire 1 i# sleep [2] $end
$var wire 1 j# sleep [1] $end
$var wire 1 k# sleep [0] $end
$var wire 1 l# \adc|init_delay\ [2] $end
$var wire 1 m# \adc|init_delay\ [1] $end
$var wire 1 n# \adc|init_delay\ [0] $end
$var wire 1 o# \adc|spi_driver|clk_ratio\ [31] $end
$var wire 1 p# \adc|spi_driver|clk_ratio\ [30] $end
$var wire 1 q# \adc|spi_driver|clk_ratio\ [29] $end
$var wire 1 r# \adc|spi_driver|clk_ratio\ [28] $end
$var wire 1 s# \adc|spi_driver|clk_ratio\ [27] $end
$var wire 1 t# \adc|spi_driver|clk_ratio\ [26] $end
$var wire 1 u# \adc|spi_driver|clk_ratio\ [25] $end
$var wire 1 v# \adc|spi_driver|clk_ratio\ [24] $end
$var wire 1 w# \adc|spi_driver|clk_ratio\ [23] $end
$var wire 1 x# \adc|spi_driver|clk_ratio\ [22] $end
$var wire 1 y# \adc|spi_driver|clk_ratio\ [21] $end
$var wire 1 z# \adc|spi_driver|clk_ratio\ [20] $end
$var wire 1 {# \adc|spi_driver|clk_ratio\ [19] $end
$var wire 1 |# \adc|spi_driver|clk_ratio\ [18] $end
$var wire 1 }# \adc|spi_driver|clk_ratio\ [17] $end
$var wire 1 ~# \adc|spi_driver|clk_ratio\ [16] $end
$var wire 1 !$ \adc|spi_driver|clk_ratio\ [15] $end
$var wire 1 "$ \adc|spi_driver|clk_ratio\ [14] $end
$var wire 1 #$ \adc|spi_driver|clk_ratio\ [13] $end
$var wire 1 $$ \adc|spi_driver|clk_ratio\ [12] $end
$var wire 1 %$ \adc|spi_driver|clk_ratio\ [11] $end
$var wire 1 &$ \adc|spi_driver|clk_ratio\ [10] $end
$var wire 1 '$ \adc|spi_driver|clk_ratio\ [9] $end
$var wire 1 ($ \adc|spi_driver|clk_ratio\ [8] $end
$var wire 1 )$ \adc|spi_driver|clk_ratio\ [7] $end
$var wire 1 *$ \adc|spi_driver|clk_ratio\ [6] $end
$var wire 1 +$ \adc|spi_driver|clk_ratio\ [5] $end
$var wire 1 ,$ \adc|spi_driver|clk_ratio\ [4] $end
$var wire 1 -$ \adc|spi_driver|clk_ratio\ [3] $end
$var wire 1 .$ \adc|spi_driver|clk_ratio\ [2] $end
$var wire 1 /$ \adc|spi_driver|clk_ratio\ [1] $end
$var wire 1 0$ \adc|spi_driver|clk_ratio\ [0] $end
$var wire 1 1$ \adc|spi_driver|ss_n\ [0] $end
$var wire 1 2$ \adc|spi_driver|rx_data\ [15] $end
$var wire 1 3$ \adc|spi_driver|rx_data\ [14] $end
$var wire 1 4$ \adc|spi_driver|rx_data\ [13] $end
$var wire 1 5$ \adc|spi_driver|rx_data\ [12] $end
$var wire 1 6$ \adc|spi_driver|rx_data\ [11] $end
$var wire 1 7$ \adc|spi_driver|rx_data\ [10] $end
$var wire 1 8$ \adc|spi_driver|rx_data\ [9] $end
$var wire 1 9$ \adc|spi_driver|rx_data\ [8] $end
$var wire 1 :$ \adc|spi_driver|rx_data\ [7] $end
$var wire 1 ;$ \adc|spi_driver|rx_data\ [6] $end
$var wire 1 <$ \adc|spi_driver|rx_data\ [5] $end
$var wire 1 =$ \adc|spi_driver|rx_data\ [4] $end
$var wire 1 >$ \adc|spi_driver|rx_data\ [3] $end
$var wire 1 ?$ \adc|spi_driver|rx_data\ [2] $end
$var wire 1 @$ \adc|spi_driver|rx_data\ [1] $end
$var wire 1 A$ \adc|spi_driver|rx_data\ [0] $end
$var wire 1 B$ \adc|spi_driver|rx_buffer\ [15] $end
$var wire 1 C$ \adc|spi_driver|rx_buffer\ [14] $end
$var wire 1 D$ \adc|spi_driver|rx_buffer\ [13] $end
$var wire 1 E$ \adc|spi_driver|rx_buffer\ [12] $end
$var wire 1 F$ \adc|spi_driver|rx_buffer\ [11] $end
$var wire 1 G$ \adc|spi_driver|rx_buffer\ [10] $end
$var wire 1 H$ \adc|spi_driver|rx_buffer\ [9] $end
$var wire 1 I$ \adc|spi_driver|rx_buffer\ [8] $end
$var wire 1 J$ \adc|spi_driver|rx_buffer\ [7] $end
$var wire 1 K$ \adc|spi_driver|rx_buffer\ [6] $end
$var wire 1 L$ \adc|spi_driver|rx_buffer\ [5] $end
$var wire 1 M$ \adc|spi_driver|rx_buffer\ [4] $end
$var wire 1 N$ \adc|spi_driver|rx_buffer\ [3] $end
$var wire 1 O$ \adc|spi_driver|rx_buffer\ [2] $end
$var wire 1 P$ \adc|spi_driver|rx_buffer\ [1] $end
$var wire 1 Q$ \adc|spi_driver|rx_buffer\ [0] $end
$var wire 1 R$ \vclock|vclk_cnt\ [5] $end
$var wire 1 S$ \vclock|vclk_cnt\ [4] $end
$var wire 1 T$ \vclock|vclk_cnt\ [3] $end
$var wire 1 U$ \vclock|vclk_cnt\ [2] $end
$var wire 1 V$ \vclock|vclk_cnt\ [1] $end
$var wire 1 W$ \vclock|vclk_cnt\ [0] $end
$var wire 1 X$ \adc|ALT_INV_state.initialize~reg0_q\ $end
$var wire 1 Y$ \adc|spi_driver|ALT_INV_mosi~en_q\ $end
$upscope $end
$upscope $end
$enddefinitions $end
#0
$dumpvars
0!
z2
03
04
05
06
17
x8
19
1:
1;
1<
1=
1>
0?
0@
zA
0B
0C
zT
0U
0V
0W
0X
0Y
0Z
0[
0\
0]
0^
0_
0`
0a
0b
0c
0d
0e
0f
0g
1h
1i
0j
0k
0l
0m
0n
0o
0p
0q
0r
0s
0t
0u
1v
0w
0x
0y
0z
0{
0|
0}
0~
0!!
0"!
0#!
1$!
0%!
0&!
0'!
1(!
0)!
1*!
0+!
0,!
0-!
1.!
0/!
00!
01!
12!
03!
14!
05!
06!
07!
08!
09!
0:!
0;!
0<!
0=!
0>!
0?!
0@!
1A!
0B!
0C!
0D!
0E!
0F!
0G!
0H!
0I!
0J!
0K!
1L!
1M!
1N!
0O!
0P!
0Q!
1R!
1S!
0T!
0U!
1V!
0W!
0X!
0Y!
0Z!
0[!
1\!
0]!
1^!
0_!
0`!
0a!
1b!
0c!
0d!
0e!
0f!
0g!
1h!
0i!
0j!
0k!
0l!
0m!
1n!
0o!
0p!
0q!
0r!
0s!
1t!
0u!
0v!
0w!
0x!
0y!
1z!
0{!
0|!
0}!
0~!
0!"
1""
0#"
0$"
0%"
0&"
0'"
1("
0)"
0*"
1+"
1,"
1-"
1."
1/"
10"
11"
02"
03"
04"
15"
06"
07"
08"
09"
0:"
1;"
0<"
0="
0>"
0?"
0@"
1A"
0B"
0C"
0D"
0E"
0F"
1G"
0H"
0I"
0J"
0K"
0L"
1M"
0N"
0O"
0P"
0Q"
0R"
1S"
0T"
0U"
0V"
1W"
1X"
1Y"
1Z"
1["
1\"
1]"
1^"
0_"
0`"
0a"
1b"
0c"
0d"
0e"
1f"
0g"
1h"
0i"
0j"
1k"
0l"
0m"
0n"
0o"
1p"
1q"
0r"
0s"
0t"
0u"
1v"
0w"
1x"
0y"
0z"
0{"
0|"
0}"
0~"
0!#
0"#
0##
0$#
0%#
0&#
0'#
0(#
0)#
0*#
0+#
0,#
0-#
0.#
0/#
00#
01#
02#
03#
04#
1X$
1Y$
0D
0E
0F
0G
0H
0I
0J
0K
0L
0M
0N
0O
0P
0Q
0R
0S
05#
06#
07#
08#
09#
0:#
0;#
0<#
0=#
0>#
0?#
0@#
0A#
0B#
0C#
0D#
0E#
0F#
0G#
0H#
0I#
0J#
0K#
0L#
0M#
0N#
0O#
0P#
0Q#
0R#
0S#
0T#
0U#
0V#
0W#
0X#
0Y#
0Z#
0[#
0\#
0]#
0^#
0_#
0`#
0a#
0b#
0c#
0d#
0e#
0f#
0g#
0h#
0i#
0j#
0k#
0l#
0m#
0n#
xo#
xp#
xq#
xr#
xs#
xt#
xu#
xv#
xw#
xx#
xy#
xz#
x{#
x|#
x}#
x~#
x!$
x"$
x#$
x$$
x%$
x&$
x'$
x($
x)$
x*$
x+$
x,$
x-$
x.$
x/$
00$
01$
02$
03$
04$
05$
06$
07$
08$
09$
0:$
0;$
0<$
0=$
0>$
0?$
0@$
0A$
0B$
0C$
0D$
0E$
0F$
0G$
0H$
0I$
0J$
0K$
0L$
0M$
0N$
0O$
0P$
0Q$
0R$
0S$
0T$
0U$
0V$
0W$
0"
0#
0$
0%
0&
0'
0(
0)
0*
0+
0,
0-
0.
0/
00
01
$end
#1000
14
1@
1~"
#2000
04
0@
0~"
#3000
14
1@
1~"
#4000
04
0@
0~"
#5000
14
1@
1~"
#6000
04
0@
0~"
#7000
14
1@
1~"
#8000
04
0@
0~"
#9000
14
1@
1~"
#10000
04
15
0@
1?
1g
0~"
1W$
0i
1j
1r
#11000
14
1@
1~"
#12000
04
0@
0~"
#13000
14
1@
1~"
#14000
04
0@
0~"
#15000
14
1@
1~"
#16000
04
0@
0~"
#17000
14
1@
1~"
#18000
04
0@
0~"
#19000
14
1@
1~"
#20000
04
05
0@
0?
0g
0~"
#21000
14
1@
1~"
#22000
04
0@
0~"
#23000
14
1@
1~"
#24000
04
0@
0~"
#25000
14
1@
1~"
#26000
04
0@
0~"
#27000
14
1@
1~"
#28000
04
0@
0~"
#29000
14
1@
1~"
#30000
04
15
0@
1?
1g
0~"
0W$
1V$
1i
#31000
14
1@
1~"
#32000
04
0@
0~"
#33000
14
1@
1~"
#34000
04
0@
0~"
#35000
14
1@
1~"
#36000
04
0@
0~"
#37000
14
1@
1~"
#38000
04
0@
0~"
#39000
14
1@
1~"
#40000
04
05
0@
0?
0g
0~"
#41000
14
1@
1~"
#42000
04
0@
0~"
#43000
14
1@
1~"
#44000
04
0@
0~"
#45000
14
1@
1~"
#46000
04
0@
0~"
#47000
14
1@
1~"
#48000
04
0@
0~"
#49000
14
1@
1~"
#50000
04
15
0@
1?
1g
0~"
1W$
0i
0j
1k
0r
#51000
14
1@
1~"
#52000
04
0@
0~"
#53000
14
1@
1~"
